{"paths": ["/home/gcasas/Documentos/SGSIR/b43c68f2-abfb-4c58-8020-1bc8119a1aa5.cge",
"/home/gcasas/Documentos/SGSIR/7eb3f4d9-d77a-4d21-bddb-fdadd2b4bc11.cge",
"/home/gcasas/Documentos/SGSIR/57600b57-2844-49fa-92c9-c04f0fae131e.cge",
"/home/gcasas/Documentos/SGSIR/b56afe23-0d50-40e4-ac57-0bd740bb6629.cge",
"/home/gcasas/Documentos/SGSIR/b3e3cf7f-de96-40b5-8186-86ec0b07101c.cge",
"/home/gcasas/Documentos/SGSIR/88dd66b2-1734-4552-9743-e1ceec7ee966.cge",
"/home/gcasas/Documentos/SGSIR/5dca6e33-d0be-42bc-9063-f0094d296aa2.cge",
"/home/gcasas/Documentos/SGSIR/6d2a8dfb-b83c-4c52-aa79-de6b407dbce5.cge",
"/home/gcasas/Documentos/SGSIR/3c51338e-8be2-41c6-a164-4701cd689527.cge",
"/home/gcasas/Documentos/SGSIR/fc170dd2-7b60-4128-86a7-37f3a03d4eb8.cge",
"/home/gcasas/Documentos/SGSIR/a2531cfd-974a-4a74-8d28-a6d4d92c531f.cge",
"/home/gcasas/Documentos/SGSIR/8e6a6bd5-4178-4a8a-80ae-e74acf6b35f2.cge",
"/home/gcasas/Documentos/SGSIR/7fbe9e05-ca48-45e4-aa43-ee2f31a80c5e.cge",
"/home/gcasas/Documentos/SGSIR/213cd013-0c08-4342-a066-1d27cafabe9c.cge",
"/home/gcasas/Documentos/SGSIR/5741199f-784d-4555-a435-97da94a66e70.cge",
"/home/gcasas/Documentos/SGSIR/ac95e662-9806-4dcc-aad8-3a7ed35f644d.cge"]}